module bootcamp/article

go 1.16

require (
	github.com/gin-gonic/gin v1.7.4
	github.com/go-openapi/spec v0.20.4 // indirect
	github.com/mailru/easyjson v0.7.7 // indirect
	github.com/swaggo/gin-swagger v1.3.3
	github.com/swaggo/swag v1.7.4
	golang.org/x/net v0.0.0-20211104170005-ce137452f963 // indirect
	golang.org/x/sys v0.0.0-20211103235746-7861aae1554b // indirect
	golang.org/x/tools v0.1.7 // indirect
)
